…
``` r
fit_Carbon_Gg <- lm(Carbon_Gg_perC ~ Country_label,
                    dat_combined)
```

### Difference of average Greenhouse gas emissions of other countries against NZ

``` r
tidy(fit_Carbon_Gg) %>% 
  arrange(estimate) 
```

    ## # A tibble: 30 x 5
    ##    term                     estimate std.error statistic      p.value
    ##    <chr>                       <dbl>     <dbl>     <dbl>        <dbl>
    ##  1 Country_labelIceland      -1.56       0.236   -6.61   0.0000000116
    ##  2 Country_labelSwitzerland  -1.07       0.236   -4.52   0.0000294   
    ##  3 Country_labelFrance       -0.701      0.236   -2.97   0.00427     
    ##  4 Country_labelSweden       -0.382      0.236   -1.62   0.111       
    ##  5 Country_labelPortugal     -0.0516     0.236   -0.219  0.828       
    ##  6 Country_labelTurkey        0.0117     0.236    0.0495 0.961       
    ##  7 Country_labelAustria       0.0216     0.236    0.0913 0.928       
    ##  8 Country_labelHungary       0.142      0.236    0.602  0.549       
    ##  9 Country_labelSpain         0.229      0.236    0.968  0.337       
    ## 10 Country_labelSlovakia      0.234      0.236    0.990  0.326       
    ## # ... with 20 more rows
…
``` r
fit_Energy_GWh <- lm(Energy_GWh_perC ~  Country_label,
                     dat_combined )
```

### Difference of average combustible fuel electricity production of other countries against NZ

``` r
tidy(fit_Energy_GWh) %>% 
  arrange(estimate) 
```

    ## # A tibble: 30 x 5
    ##    term                     estimate std.error statistic  p.value
    ##    <chr>                       <dbl>     <dbl>     <dbl>    <dbl>
    ##  1 Country_labelIceland      -2.63       0.343   -7.68   1.71e-10
    ##  2 Country_labelSwitzerland  -2.20       0.343   -6.42   2.45e- 8
    ##  3 Country_labelFrance       -1.79       0.343   -5.21   2.41e- 6
    ##  4 Country_labelNorway       -1.73       0.343   -5.05   4.38e- 6
    ##  5 Country_labelSlovakia     -1.35       0.343   -3.95   2.06e- 4
    ##  6 Country_labelHungary      -0.846      0.343   -2.47   1.63e- 2
    ##  7 Country_labelSweden       -0.596      0.343   -1.74   8.68e- 2
    ##  8 Country_labelTurkey       -0.494      0.343   -1.44   1.55e- 1
    ##  9 Country_labelPortugal     -0.242      0.343   -0.706  4.83e- 1
    ## 10 Country_labelSlovenia     -0.0135     0.343   -0.0394 9.69e- 1
    ## # ... with 20 more rows
…
